{
	"info": {
		"_postman_id": "aec752f7-2912-4fac-9c39-cec09b773981",
		"name": "CustomerCollection",
		"schema": "https://schema.getpostman.com/json/collection/v2.1.0/collection.json"
	},
	"item": [
		{
			"name": "GetAllCustomers",
			"request": {
				"method": "GET",
				"header": [],
				"url": {
					"raw": "https://localhost:44328/api/customers",
					"protocol": "https",
					"host": [
						"localhost"
					],
					"port": "44328",
					"path": [
						"api",
						"customers"
					]
				}
			},
			"response": []
		},
		{
			"name": "GetCustomer",
			"request": {
				"method": "GET",
				"header": [],
				"url": {
					"raw": "https://localhost:44328/api/customers/6",
					"protocol": "https",
					"host": [
						"localhost"
					],
					"port": "44328",
					"path": [
						"api",
						"customers",
						"6"
					]
				}
			},
			"response": []
		},
		{
			"name": "GetCustomersPerCountry",
			"request": {
				"method": "GET",
				"header": [],
				"url": {
					"raw": "https://localhost:44328/api/customers/per-country",
					"protocol": "https",
					"host": [
						"localhost"
					],
					"port": "44328",
					"path": [
						"api",
						"customers",
						"per-country"
					]
				}
			},
			"response": []
		},
		{
			"name": "GetCustomerMostPopularGenre",
			"request": {
				"method": "GET",
				"header": [],
				"url": {
					"raw": "https://localhost:44328/api/customers/6/popular/genre",
					"protocol": "https",
					"host": [
						"localhost"
					],
					"port": "44328",
					"path": [
						"api",
						"customers",
						"6",
						"popular",
						"genre"
					]
				}
			},
			"response": []
		},
		{
			"name": "GetCustomerMostPopularGenre (tie)",
			"request": {
				"method": "GET",
				"header": [],
				"url": {
					"raw": "https://localhost:44328/api/customers/12/popular/genre",
					"protocol": "https",
					"host": [
						"localhost"
					],
					"port": "44328",
					"path": [
						"api",
						"customers",
						"12",
						"popular",
						"genre"
					]
				}
			},
			"response": []
		},
		{
			"name": "UpdateCustomer",
			"request": {
				"method": "PUT",
				"header": [],
				"body": {
					"mode": "raw",
					"raw": "{\r\n    \"customerId\": 25,\r\n    \"firstName\": \"Karl\",\r\n    \"lastName\": \"Reverud\",\r\n    \"country\": \"Norway\",\r\n    \"postalCode\": \"0555\",\r\n    \"phone\": \"987654321\",\r\n    \"email\": \"karl.reverud@gmail.com\"\r\n}",
					"options": {
						"raw": {
							"language": "json"
						}
					}
				},
				"url": {
					"raw": "https://localhost:44328/api/customers/25",
					"protocol": "https",
					"host": [
						"localhost"
					],
					"port": "44328",
					"path": [
						"api",
						"customers",
						"25"
					]
				}
			},
			"response": []
		},
		{
			"name": "AddCustomer",
			"request": {
				"method": "POST",
				"header": [],
				"body": {
					"mode": "raw",
					"raw": "{\r\n    \"firstName\": \"Karl\",\r\n    \"lastName\": \"Reverud\",\r\n    \"country\": \"Norway\",\r\n    \"postalCode\": \"0555\",\r\n    \"phone\": \"987654321\",\r\n    \"email\": \"karl.reverud@gmail.com\"\r\n}",
					"options": {
						"raw": {
							"language": "json"
						}
					}
				},
				"url": {
					"raw": "https://localhost:44328/api/customers",
					"protocol": "https",
					"host": [
						"localhost"
					],
					"port": "44328",
					"path": [
						"api",
						"customers"
					]
				}
			},
			"response": []
		}
	]
}